{
    "services": {
        "LaunchPage": {
            "adapter": {
                "config": {
                    "catalogs": [],
                    "groups": [
                        {
                            "id": "Home",
                            "title": "Home",
                            "isPreset": true,
                            "isVisible": true,
                            "isGroupLocked": false,
                            "tiles": [
                                {
                                    "id": "listofbooks",
                                    "title": "List of Books",
                                    "tileType": "sap.ushell.ui.tile.StaticTile",
                                    "properties": {
                                        "chipId": "listofbooks_000",
                                        "title": "View Error Messages",
                                        "subtitle": "View Error Messages",
                                        "targetURL": "#ListOfBooks-display",
                                        "icon": "sap-icon://ui-notifications"
                                    }
                                }
                            ]
                        }
                    ]
                }
            }
        },
        "NavTargetResolution": {
            "config": {
                "enableClientSideTargetResolution": true
            }
        },
        "ClientSideTargetResolution": {
            "adapter": {
                "config": {
                    "inbounds": {
                        "listofbooks": {
                            "semanticObject": "ListOfBooks",
                            "action": "display",
                            "title": "List of Books",
                            "signature": {
                                "parameters": {},
                                "additionalParameters": "allowed"
                            },
                            "resolutionResult": {
                                "applicationType": "URL",
                                "additionalInformation": "SAPUI5.Component=listofbooks",
                                "url": "./listofbooks/webapp"
                            }
                        }
                    }
                }
            }
        }
    }
}
